Table Course Outline
…
Lesson 1: Get data into right format

Video Overview

The first lesson is about getting the data to the right format before we can even begin to build the table. Regardless of what package you use to create the table, it will just take your data frame and put it into a table as it is. Thus, you need to rearrange that data in your data frame before even calling, say, flextable().

The most powerful function to get this job done are pivot_wider() and pivot_longer(), they are able to transition the data frame from long format to white format and vice versa.

library(tidyverse)
penguins <- palmerpenguins::penguins |> 
  filter(!is.na(sex))
penguins

# A tibble: 333 × 8
   species island    bill_length_mm bill_depth_mm flipper_…¹ body_…² sex    year
   <fct>   <fct>              <dbl>         <dbl>      <int>   <int> <fct> <int>
 1 Adelie  Torgersen           39.1          18.7        181    3750 male   2007
 2 Adelie  Torgersen           39.5          17.4        186    3800 fema…  2007
 3 Adelie  Torgersen           40.3          18          195    3250 fema…  2007
 4 Adelie  Torgersen           36.7          19.3        193    3450 fema…  2007
 5 Adelie  Torgersen           39.3          20.6        190    3650 male   2007
 6 Adelie  Torgersen           38.9          17.8        181    3625 fema…  2007
 7 Adelie  Torgersen           39.2          19.6        195    4675 male   2007
 8 Adelie  Torgersen           41.1          17.6        182    3200 fema…  2007
 9 Adelie  Torgersen           38.6          21.2        191    3800 male   2007
10 Adelie  Torgersen           34.6          21.1        198    4400 male   2007
# … with 323 more rows, and abbreviated variable names ¹​flipper_length_mm,
#   ²​body_mass_g

penguin_counts <- penguins |> 
  mutate(year = as.character(year)) |> 
  group_by(species, island, sex, year) |> 
  summarise(n = n(), .groups = 'drop')
penguin_counts

# A tibble: 30 × 5
   species island sex    year      n
   <fct>   <fct>  <fct>  <chr> <int>
 1 Adelie  Biscoe female 2007      5
 2 Adelie  Biscoe female 2008      9
 3 Adelie  Biscoe female 2009      8
 4 Adelie  Biscoe male   2007      5
 5 Adelie  Biscoe male   2008      9
 6 Adelie  Biscoe male   2009      8
 7 Adelie  Dream  female 2007      9
 8 Adelie  Dream  female 2008      8
 9 Adelie  Dream  female 2009     10
10 Adelie  Dream  male   2007     10
# … with 20 more rows
…
# For demo purposes revert with pivot_longer()
penguin_counts_wider |> 
  pivot_longer(
    cols = -(1:2),
    names_to = c('species', 'sex'),
    names_sep = '_'
  )

# A tibble: 54 × 5
   island year  species   sex    value
   <fct>  <chr> <chr>     <chr>  <int>
 1 Biscoe 2007  Adelie    female     5
 2 Biscoe 2007  Adelie    male       5
 3 Biscoe 2007  Chinstrap female    NA
 4 Biscoe 2007  Chinstrap male      NA
 5 Biscoe 2007  Gentoo    female    16
 6 Biscoe 2007  Gentoo    male      17
 7 Biscoe 2008  Adelie    female     9
 8 Biscoe 2008  Adelie    male       9
 9 Biscoe 2008  Chinstrap female    NA
10 Biscoe 2008  Chinstrap male      NA
# … with 44 more rows
…
