your_turn_exercises
…
Lesson 1: Get data into right format

In this exercise, we want to rearrange the data in the data set gapminder from the gapminder package. This data set contains life expectancies for different countries all over the world from different points in time. We want to consider only a couple of years and a couple of countries from this data set. Take the full gapminder data set, i.e. use

gapminder::gapminder |> 
  janitor::clean_names() # optional but makes nicer column names
## # A tibble: 1,704 × 6
##    country     continent  year life_exp      pop gdp_percap
##    <fct>       <fct>     <int>    <dbl>    <int>      <dbl>
##  1 Afghanistan Asia       1952     28.8  8425333       779.
##  2 Afghanistan Asia       1957     30.3  9240934       821.
##  3 Afghanistan Asia       1962     32.0 10267083       853.
##  4 Afghanistan Asia       1967     34.0 11537966       836.
##  5 Afghanistan Asia       1972     36.1 13079460       740.
##  6 Afghanistan Asia       1977     38.4 14880372       786.
##  7 Afghanistan Asia       1982     39.9 12881816       978.
##  8 Afghanistan Asia       1987     40.8 13867957       852.
##  9 Afghanistan Asia       1992     41.7 16317921       649.
## 10 Afghanistan Asia       1997     41.8 22227415       635.
## # ℹ 1,694 more rows
…
